{
	"AssetInfoVersion": 2,
	"ShaderCodeToAssets": [
		{
			"ShaderMapHash": "2999643345C5DB8E4B990FC067EEAF6E75FC959E",
			"Assets": [
				"/Engine/EngineMaterials/BaseFlattenMaterial_VT",
				"/Engine/EngineMaterials/BaseFlattenMaterial"
			]
		},
		{
			"ShaderMapHash": "8B5BB8DDA893BF4C557F4D98F38BE2BA736C29CB",
			"Assets": [
				"/Engine/EngineMaterials/PhAT_JointLimitMaterial"
			]
		},
		{
			"ShaderMapHash": "9875E0D516869E1A1316AEF7568E5829BD778201",
			"Assets": [
				"/Engine/EngineMaterials/GizmoMaterial"
			]
		},
		{
			"ShaderMapHash": "94CA63D602A29EBFCE03D77CCED136AC9F3992CF",
			"Assets": [
				"/Engine/EngineMaterials/M_InvalidLightmapSettings"
			]
		},
		{
			"ShaderMapHash": "A211C2305302ECCEA569544F8BFE817031ED2C63",
			"Assets": [
				"/Engine/EngineMaterials/EmissiveMeshMaterial"
			]
		},
		{
			"ShaderMapHash": "170A679EAAC44828C89795704AF4A1221AC8D3E9",
			"Assets": [
				"/Engine/EngineDebugMaterials/DebugMeshMaterial"
			]
		},
		{
			"ShaderMapHash": "813F45DF7CE0F0CA00408D9AC89070BFA2D0F2DA",
			"Assets": [
				"/Engine/EngineMaterials/RemoveSurfaceMaterial"
			]
		},
		{
			"ShaderMapHash": "6A62D28913E7442EA7A5A3C94EC775637E85555B",
			"Assets": [
				"/OculusVR/Materials/OculusMR_OpaqueColoredMaterial",
				"/Engine/ArtTools/RenderToTexture/Materials/Debug/M_Emissive_Color"
			]
		},
		{
			"ShaderMapHash": "52EA8C3582452BA465B0BDE47CAC23806B335EA9",
			"Assets": [
				"/OculusVR/Materials/OculusMR_ChromaKey"
			]
		},
		{
			"ShaderMapHash": "BB0A8E5BCF9776AEED15B3F360DCB11149354E05",
			"Assets": [
				"/Engine/EngineDebugMaterials/M_VolumeRenderSphereTracePP"
			]
		},
		{
			"ShaderMapHash": "600FA420F2E3D903D0137E0003D1F072754227C6",
			"Assets": [
				"/SpeedTreeImporter/SpeedTree9/SpeedTreeBillboardMaster"
			]
		},
		{
			"ShaderMapHash": "247680B120708B243543974BDC495A6A05330A57",
			"Assets": [
				"/SpeedTreeImporter/SpeedTree9/SpeedTreeMaster"
			]
		},
		{
			"ShaderMapHash": "A6EF1E70B07D9317007463DF10E7D7B78DD49897",
			"Assets": [
				"/Engine/EngineDebugMaterials/WireframeMaterial"
			]
		},
		{
			"ShaderMapHash": "8ABF688865F1B61B7D08AF2F5C339ED3BDC57FE9",
			"Assets": [
				"/Engine/EngineDebugMaterials/VertexColorMaterial"
			]
		},
		{
			"ShaderMapHash": "7CAC82C93AB7DADFF7530A06CC5AD606D62EDC5D",
			"Assets": [
				"/Engine/EngineMaterials/DefaultMaterial"
			]
		},
		{
			"ShaderMapHash": "89A8742C671CB982F827BE38C61DE0DE12EA265B",
			"Assets": [
				"/Paper2D/OpaqueUnlitSpriteMaterial"
			]
		},
		{
			"ShaderMapHash": "A3864F224215B9454E3518E34777385FA3E5DC16",
			"Assets": [
				"/Paper2D/DefaultSpriteMaterial"
			]
		},
		{
			"ShaderMapHash": "AACF318CF6DA7F3E8F22C27DE616D346692E8EEF",
			"Assets": [
				"/OculusVR/Materials/PokeAHoleMaterial"
			]
		},
		{
			"ShaderMapHash": "632935D8F2D7A1A080CD94B007DD68C8711200FB",
			"Assets": [
				"/HairStrands/Materials/HairMeshesDefaultMaterial",
				"/HairStrands/Materials/HairDefaultMaterial"
			]
		},
		{
			"ShaderMapHash": "5BE4CA00DF1BB4D25826CC46691547DF5D9885A3",
			"Assets": [
				"/HairStrands/Materials/HairCardsDefaultMaterial"
			]
		},
		{
			"ShaderMapHash": "05AFB3B048E3A0554537EDE1B1C73A1C004585C3",
			"Assets": [
				"/HairStrands/Materials/HairDebugMaterial"
			]
		},
		{
			"ShaderMapHash": "5E273AD012C7253EFF9DD2FEA82A76A8267E5D5A",
			"Assets": [
				"/Engine/EngineDebugMaterials/M_SimpleUnlitTranslucent"
			]
		},
		{
			"ShaderMapHash": "4C52C4FC9C399FFF93437D855F006FD112832834",
			"Assets": [
				"/Engine/EditorMaterials/Camera/CineMat"
			]
		},
		{
			"ShaderMapHash": "6A2FC7D81D6860F419FB654D013A1288E9C9B728",
			"Assets": [
				"/Engine/VREditor/TransformGizmo/TranslucentTransformGizmoMaterial"
			]
		},
		{
			"ShaderMapHash": "5A06EF93F2E25B45CFA16C0EEFB11E4E19FBBA3F",
			"Assets": [
				"/Engine/VREditor/TransformGizmo/TransformGizmoMaterial"
			]
		},
		{
			"ShaderMapHash": "733BFD13EFD916BD067AD1401114AA7C8275757A",
			"Assets": [
				"/Engine/EngineMaterials/Widget3DPassThrough_Masked_OneSided"
			]
		},
		{
			"ShaderMapHash": "3D79D2042375912EC140480062702A127862B63D",
			"Assets": [
				"/Engine/EngineMaterials/Widget3DPassThrough_Masked"
			]
		},
		{
			"ShaderMapHash": "8A82A91B3567A6EE29EA1A670258EEDBE8BDD01B",
			"Assets": [
				"/Engine/EngineMaterials/Widget3DPassThrough_Opaque_OneSided"
			]
		},
		{
			"ShaderMapHash": "4A75448EBD97FEBCE61CBF591704949C1D631196",
			"Assets": [
				"/Engine/EngineMaterials/Widget3DPassThrough_Opaque"
			]
		},
		{
			"ShaderMapHash": "52C579D8291EDBD2270FD731F108D712BF7A7A86",
			"Assets": [
				"/Engine/EngineMaterials/Widget3DPassThrough_Translucent_OneSided",
				"/Engine/EngineMaterials/Widget3DPassThrough"
			]
		},
		{
			"ShaderMapHash": "F80FB8F8308C8B5625190F3150823CDDD9C49A81",
			"Assets": [
				"/Engine/EngineMaterials/Widget3DPassThrough_Translucent"
			]
		},
		{
			"ShaderMapHash": "3DFBE1E1A03F8E1F6449C7CED144E4BAEC2EA957",
			"Assets": [
				"/Engine/VREditor/TransformGizmo/Xray",
				"/Game/UETT3CA/3D_Assets/Material"
			]
		},
		{
			"ShaderMapHash": "BB891F3714FA23AC5BC2428A098E17080D3357B8",
			"Assets": [
				"/Engine/VREditor/TransformGizmo/Main"
			]
		},
		{
			"ShaderMapHash": "1025A6DAAADB9BB68E25F1A2A315BD73645FFF60",
			"Assets": [
				"/Engine/EditorMaterials/WorldPartition/WorldPartitionSpatialHashGridPreviewMaterial"
			]
		},
		{
			"ShaderMapHash": "F8853998FD27D266D6D3BA189739A4DEC508A7DF",
			"Assets": [
				"/Engine/EngineSky/VolumetricClouds/m_SimpleVolumetricCloud"
			]
		},
		{
			"ShaderMapHash": "F9F2FC0D101F73CFA6963E79C45CEB9FE42B1166",
			"Assets": [
				"/Engine/EngineMaterials/DefaultPostProcessMaterial"
			]
		},
		{
			"ShaderMapHash": "7D4E08CDB427B63E5B596A0F4F2860C034A166C9",
			"Assets": [
				"/Engine/EngineMaterials/DefaultLightFunctionMaterial"
			]
		},
		{
			"ShaderMapHash": "568937DBA9359E0B81AFE41FEC7C29A76607302E",
			"Assets": [
				"/Engine/EngineMaterials/DefaultDeferredDecalMaterial"
			]
		},
		{
			"ShaderMapHash": "B04DE1B7AE6862B0B2F0792B2F42ED4415E4F0C5",
			"Assets": [
				"/Engine/EngineMaterials/WorldGridMaterial"
			]
		},
		{
			"ShaderMapHash": "BDCC975A2D64C54AD04B6FBFF751040449C01804",
			"Assets": [
				"/Engine/EngineMaterials/DefaultTextMaterialOpaque"
			]
		},
		{
			"ShaderMapHash": "6F37C3F960CA2CE6B112B3C9DBB51A1C64F70B46",
			"Assets": [
				"/Game/FirstPerson/Character/Materials/M_UE4Man_Body"
			]
		},
		{
			"ShaderMapHash": "D55EE6B1683573A52516C9087F652EC0EB710CA9",
			"Assets": [
				"/Game/FirstPerson/Meshes/BaseMaterial"
			]
		},
		{
			"ShaderMapHash": "E38C997F3E0645C6919A7FE8EDCB6241935FFD23",
			"Assets": [
				"/Game/FPWeapon/Materials/M_FPGun"
			]
		},
		{
			"ShaderMapHash": "DD01A7036E8FD296946F389411F747A92D774A86",
			"Assets": [
				"/Engine/BasicShapes/BasicShapeMaterial"
			]
		},
		{
			"ShaderMapHash": "0BE435D1C88DD159EC9F38A3E73A6A82B796AEDA",
			"Assets": [
				"/Game/Geometry/Meshes/CubeMaterial"
			]
		},
		{
			"ShaderMapHash": "12B425F9536CA0D30D7073D11CDD9F49865AA78C",
			"Assets": [
				"/Engine/EngineSky/M_Sky_Panning_Clouds2"
			]
		},
		{
			"ShaderMapHash": "D29E2508BB0A7EAE0AA55715D227C95A795C81B4",
			"Assets": [
				"/Engine/EditorMaterials/PreviewShadowIndicatorMaterial"
			]
		},
		{
			"ShaderMapHash": "C48161ECD5F09A178699A1CBA6946801BD665F43",
			"Assets": [
				"/Engine/EngineDebugMaterials/DebugEditorMaterial"
			]
		}
	]
}