{
	"AssetInfoVersion": 2,
	"ShaderCodeToAssets": [
		{
			"ShaderMapHash": "D2C0F2EC7C5BBD1798BC7AEF42B4A8F3E1905848",
			"Assets": [
				"None"
			]
		},
		{
			"ShaderMapHash": "2CBB383FAAA0887A839F28E7FF53B59FA1FA9EEB",
			"Assets": [
				"None"
			]
		},
		{
			"ShaderMapHash": "5DBCF801CDF191A0484B3281DF9338C2AE2C53BF",
			"Assets": [
				"None"
			]
		},
		{
			"ShaderMapHash": "2DD3F48745E893E072B404CD6EDF1DFFCB695357",
			"Assets": [
				"None"
			]
		},
		{
			"ShaderMapHash": "F3E87007E4C19A8DBFE20A32CADCA86445B7DA66",
			"Assets": [
				"None"
			]
		},
		{
			"ShaderMapHash": "A0D2E06BEABFFB0EDEB437601F7EDBA637FA062F",
			"Assets": [
				"None"
			]
		},
		{
			"ShaderMapHash": "E5CC0CE2AA4DC5B06E7A4F4F528FAB44E429E133",
			"Assets": [
				"None"
			]
		},
		{
			"ShaderMapHash": "2FE859B56DCEE23B4DE600FFE4FD0D973CEF5879",
			"Assets": [
				"None"
			]
		},
		{
			"ShaderMapHash": "F541F64245D04224AD516D0F1B7F64E21A097FDC",
			"Assets": [
				"None"
			]
		},
		{
			"ShaderMapHash": "915D85B0ACA1255A4BBE9EBC45003702727B44C2",
			"Assets": [
				"None"
			]
		},
		{
			"ShaderMapHash": "37D94F60DA7B07701AA441FFCB260E4B8D06028F",
			"Assets": [
				"None"
			]
		},
		{
			"ShaderMapHash": "8433A824F7ADEE948B226CBD07FC140694D8CC15",
			"Assets": [
				"None"
			]
		},
		{
			"ShaderMapHash": "BC157898B1D769206C2CC883D7C61858AD0F4397",
			"Assets": [
				"None"
			]
		},
		{
			"ShaderMapHash": "11B94502E0602DE23FBD03D6E51DA7ED6D409E9C",
			"Assets": [
				"None"
			]
		},
		{
			"ShaderMapHash": "84F36DA363C3516FCE47775E4B1E7E504B68778F",
			"Assets": [
				"None"
			]
		},
		{
			"ShaderMapHash": "49D74DD885DF12EFBBFB5D1DAAF8D3135B4937BE",
			"Assets": [
				"None"
			]
		},
		{
			"ShaderMapHash": "EA508A6FEC02ABFFE59A50D5275CBF71912099B8",
			"Assets": [
				"None"
			]
		},
		{
			"ShaderMapHash": "231C20AEFA5BBA0FF8A5492AC93C4873AA0E1BDD",
			"Assets": [
				"None"
			]
		},
		{
			"ShaderMapHash": "74AC6C75DE8D661F666EBE587D58E91FE86591B2",
			"Assets": [
				"None"
			]
		},
		{
			"ShaderMapHash": "33E444760FBFF2477D3B73D6AAE7E2D0DE765542",
			"Assets": [
				"None"
			]
		},
		{
			"ShaderMapHash": "416F80FEDD54894B7F1F63D0DFCC137C9E699614",
			"Assets": [
				"None"
			]
		},
		{
			"ShaderMapHash": "A0CCB125D85FA918C74BE0A55B1F717A3E0B7206",
			"Assets": [
				"None"
			]
		},
		{
			"ShaderMapHash": "71515535F0224AC3773B477AA47506729BF60119",
			"Assets": [
				"None"
			]
		},
		{
			"ShaderMapHash": "8F1253A7AEE45FF3AED22588EC1B2CDE3477BC39",
			"Assets": [
				"None"
			]
		},
		{
			"ShaderMapHash": "4FF69C2E39100B908DFCF9C4EC8A321BC8B1A924",
			"Assets": [
				"None"
			]
		},
		{
			"ShaderMapHash": "047F1CF4C357AF520DFBDFF3ADF6A749E743F98F",
			"Assets": [
				"None"
			]
		},
		{
			"ShaderMapHash": "A7542F7B6438923F9CCB652D003CDBF66BC274E9",
			"Assets": [
				"None"
			]
		},
		{
			"ShaderMapHash": "4F88748A37C34123E881AEEC9E004149B609694A",
			"Assets": [
				"None"
			]
		},
		{
			"ShaderMapHash": "5158B2A192D81313388E571024F09DBAFA01E976",
			"Assets": [
				"None"
			]
		},
		{
			"ShaderMapHash": "4E1DB499E0122A82A0F2CD7A0C63D8FF2CBFDAD7",
			"Assets": [
				"None"
			]
		},
		{
			"ShaderMapHash": "AB749365FB678A76B6DDCB6673FA22D9CCCCD0F4",
			"Assets": [
				"None"
			]
		},
		{
			"ShaderMapHash": "53AF1E0BBBD217EFA9C902365BE1E8E0E08D0660",
			"Assets": [
				"None"
			]
		},
		{
			"ShaderMapHash": "7DB9A7D5DF0A5C735A594CEC21287C8A570F7C0F",
			"Assets": [
				"None"
			]
		},
		{
			"ShaderMapHash": "F8D6AD13E689C1E3FA5E334072DFC14189E86627",
			"Assets": [
				"None"
			]
		},
		{
			"ShaderMapHash": "B54D382F7BBDC00B0FB86E5110B8B970055E12C5",
			"Assets": [
				"None"
			]
		},
		{
			"ShaderMapHash": "C934713ECD13630B5C4981B8931B3A2AB741CB09",
			"Assets": [
				"None"
			]
		},
		{
			"ShaderMapHash": "3F3C014EAAC1F50794ABDDE4691CA9A2C4DB4CA3",
			"Assets": [
				"None"
			]
		},
		{
			"ShaderMapHash": "3C071DD8CD04FC71536DC5089EF765C25D07417D",
			"Assets": [
				"None"
			]
		},
		{
			"ShaderMapHash": "55F5F01D83906D3524187F8E8CC5CD27C2E50EF4",
			"Assets": [
				"None"
			]
		},
		{
			"ShaderMapHash": "1BB1492F6BAB71F85B3740B5C57DC28961DCC93B",
			"Assets": [
				"None"
			]
		},
		{
			"ShaderMapHash": "0A1A30160A3AEB1C77EF7F8F3C954155EEF1574F",
			"Assets": [
				"None"
			]
		},
		{
			"ShaderMapHash": "11C6F7F65E09AA1F3F65189646688A39CF6170A9",
			"Assets": [
				"None"
			]
		},
		{
			"ShaderMapHash": "8C09B7BE2EC33407A6A1F93A98545C06E01F26D2",
			"Assets": [
				"None"
			]
		},
		{
			"ShaderMapHash": "96E5E7A7E4D53745106D28ADEA48B18D55D4A7B4",
			"Assets": [
				"None"
			]
		},
		{
			"ShaderMapHash": "F50DF86CB921C1BE6A9339542B9993D96E519AF4",
			"Assets": [
				"None"
			]
		},
		{
			"ShaderMapHash": "73F49A1FB5AE288070A97B223A2D3835807C3DC9",
			"Assets": [
				"None"
			]
		},
		{
			"ShaderMapHash": "34AB6650545667682F1503469A07E27404370BF6",
			"Assets": [
				"None"
			]
		},
		{
			"ShaderMapHash": "FB43BF965B588FD5D644CEDF9A42345B7938A84C",
			"Assets": [
				"None"
			]
		},
		{
			"ShaderMapHash": "1395745EAE49B69967636C8DB2CA08490AE123AC",
			"Assets": [
				"None"
			]
		},
		{
			"ShaderMapHash": "84A6E3D54CAD4CA146DCDAF946ED72BA0027B265",
			"Assets": [
				"None"
			]
		},
		{
			"ShaderMapHash": "D29E27E00691B1A5697DD412BA7E80DAFFD500AE",
			"Assets": [
				"None"
			]
		},
		{
			"ShaderMapHash": "10204B1EFCC130C91F2A3B7BEA38BC526E1171B3",
			"Assets": [
				"None"
			]
		},
		{
			"ShaderMapHash": "64E14A7C3D9AC0916B5333A75D1ADDD796FFDC48",
			"Assets": [
				"None"
			]
		},
		{
			"ShaderMapHash": "B6622A82916673A796E46AA66F9699BF022ECC3A",
			"Assets": [
				"None"
			]
		},
		{
			"ShaderMapHash": "A30A18D189145A1B0F9D455BDA70A61588970A03",
			"Assets": [
				"None"
			]
		},
		{
			"ShaderMapHash": "9995D27D287F02EEACC56719845ACEEB31DFC85B",
			"Assets": [
				"None"
			]
		},
		{
			"ShaderMapHash": "F209D1EA71E1D19C493B42A0B063804D381AEA7D",
			"Assets": [
				"None"
			]
		},
		{
			"ShaderMapHash": "7C6316A2B768C577067DA9D10D713E8AE0EDB2F2",
			"Assets": [
				"None"
			]
		},
		{
			"ShaderMapHash": "8B74B57D95E6F8FD7CBCAF4C4A9FF88F49B0D228",
			"Assets": [
				"None"
			]
		},
		{
			"ShaderMapHash": "484BFBAFBC2C23EAD1EBEB3144D0E75FC22FE4F2",
			"Assets": [
				"None"
			]
		},
		{
			"ShaderMapHash": "667EBF8D8B20C3CDD6DD3C99E23D85E8A918232E",
			"Assets": [
				"None"
			]
		},
		{
			"ShaderMapHash": "25A2DA75DADB189F5E17004953095FBB9660717B",
			"Assets": [
				"None"
			]
		},
		{
			"ShaderMapHash": "A6B5269DB552AFC46D5AD7646FA1E47CEFDD60E3",
			"Assets": [
				"None"
			]
		},
		{
			"ShaderMapHash": "D22148CF6F9DAF8B6F19247BCF89C5DF6402D28D",
			"Assets": [
				"None"
			]
		},
		{
			"ShaderMapHash": "C60F7C57FB66D6BC88FDABC5C06F3A549261269C",
			"Assets": [
				"None"
			]
		},
		{
			"ShaderMapHash": "F19A835571AFAC3F0D488875D46645FC2AA82985",
			"Assets": [
				"None"
			]
		},
		{
			"ShaderMapHash": "A24422D39F6AA78A518E36C0FD7D34FA0D2B518B",
			"Assets": [
				"None"
			]
		},
		{
			"ShaderMapHash": "2CCCC6315127F100C4679A0B48384162FBAA97DF",
			"Assets": [
				"None"
			]
		},
		{
			"ShaderMapHash": "CDE5D79DD219CBF17889B326B6B77AE50360C374",
			"Assets": [
				"None"
			]
		},
		{
			"ShaderMapHash": "3C755025CA046A5672466FF2399549EAD8958A1D",
			"Assets": [
				"None"
			]
		},
		{
			"ShaderMapHash": "038023ED82F614F199D39ACD17070EFF31333EF1",
			"Assets": [
				"None"
			]
		},
		{
			"ShaderMapHash": "59FA515482EB312AF4EF1E7C18EF0F2067D76EA8",
			"Assets": [
				"None"
			]
		},
		{
			"ShaderMapHash": "8638274AA8FB34306EABE14D143613CBF7E1D308",
			"Assets": [
				"None"
			]
		},
		{
			"ShaderMapHash": "7CDD656B020D95C20DCBDD6CA23CD43FED02E9C3",
			"Assets": [
				"None"
			]
		},
		{
			"ShaderMapHash": "AD8444475C15719079C33D03875D7CB922B46CE6",
			"Assets": [
				"None"
			]
		},
		{
			"ShaderMapHash": "9ECC96B9452FC0C099DA2C46354EFD52FFFD7DA2",
			"Assets": [
				"None"
			]
		},
		{
			"ShaderMapHash": "C190AF61A2AC867ACEA41990FF2001185BEE7CA7",
			"Assets": [
				"None"
			]
		},
		{
			"ShaderMapHash": "0191A41BF49F3D46290C1FAFA547CFDBC3D2608F",
			"Assets": [
				"None"
			]
		},
		{
			"ShaderMapHash": "C427BBAADE9A7990A1D347BBE7FD6953E38C14C0",
			"Assets": [
				"None"
			]
		},
		{
			"ShaderMapHash": "99467914E3EA3A4725656607EB96A1FC28201180",
			"Assets": [
				"None"
			]
		},
		{
			"ShaderMapHash": "3E2EBEB30B04EE63F95BBED7B73BCFAA6AA1EC2B",
			"Assets": [
				"None"
			]
		},
		{
			"ShaderMapHash": "8C488938CB2229040F265833E0575FFA637C3F9C",
			"Assets": [
				"None"
			]
		},
		{
			"ShaderMapHash": "D74364E4C6B8EF0858494DAD7D011B390EF95173",
			"Assets": [
				"None"
			]
		},
		{
			"ShaderMapHash": "15FAA012C46EDBA5A91D2D966E811F568AF42DEA",
			"Assets": [
				"None"
			]
		},
		{
			"ShaderMapHash": "5F90E777DF42660FDDC062FFB4A07DE837F74BBD",
			"Assets": [
				"None"
			]
		},
		{
			"ShaderMapHash": "D7EEE18A2F21AFC468C5B9F9FD8B101A7B713315",
			"Assets": [
				"None"
			]
		},
		{
			"ShaderMapHash": "B77760C40429157294718471D9E75392BA2AC3C9",
			"Assets": [
				"None"
			]
		},
		{
			"ShaderMapHash": "FCFF225DED3AAB4D2DA23F77A70710DEF095C310",
			"Assets": [
				"None"
			]
		},
		{
			"ShaderMapHash": "BF3F8A9AF60D2BA03171B11F40C6ABF40B488C58",
			"Assets": [
				"None"
			]
		},
		{
			"ShaderMapHash": "FF0ECFE56B5727DC5695BC386C53C196FCF835D9",
			"Assets": [
				"None"
			]
		},
		{
			"ShaderMapHash": "98184DE4D19A00C0C7C60CF798D3C51FAAC52C19",
			"Assets": [
				"None"
			]
		},
		{
			"ShaderMapHash": "3AAB2FDAA98CEF5770C54743E1711335A8BEF79B",
			"Assets": [
				"None"
			]
		},
		{
			"ShaderMapHash": "B17E5EA220322E99146831E565669CB45A8E87E8",
			"Assets": [
				"None"
			]
		},
		{
			"ShaderMapHash": "A9493AD784F9F6E923E53947D57AB3E16E839C2E",
			"Assets": [
				"None"
			]
		},
		{
			"ShaderMapHash": "0911E10166500A621FCEBD0CC179270EBB481407",
			"Assets": [
				"None"
			]
		},
		{
			"ShaderMapHash": "F578F864B4B6C02C693A184D5E2615893D56CFBE",
			"Assets": [
				"None"
			]
		},
		{
			"ShaderMapHash": "FC3E28E167DEEBF2DD3FDE55767FC7656B8F52C2",
			"Assets": [
				"None"
			]
		},
		{
			"ShaderMapHash": "A5AD726FBBE06CBE4B47AEB03DDF08434F61AE79",
			"Assets": [
				"None"
			]
		},
		{
			"ShaderMapHash": "50478036D9353608E11429B3623AE87AB67A7AAD",
			"Assets": [
				"None"
			]
		},
		{
			"ShaderMapHash": "F4B94C2D6B03F58372F9CB447B09A8B4F447E866",
			"Assets": [
				"None"
			]
		},
		{
			"ShaderMapHash": "424A7E6D435E6DF06C5DE0A0782D886406D6CB85",
			"Assets": [
				"None"
			]
		},
		{
			"ShaderMapHash": "EE348C06FA988EF4E7CA6F9EA89D4533E334CD74",
			"Assets": [
				"None"
			]
		},
		{
			"ShaderMapHash": "8E29DB091C3A47119D7C1AB9E7B8FAE889DF8279",
			"Assets": [
				"None"
			]
		},
		{
			"ShaderMapHash": "88DB6509A01AF93FF40A936FF2D0759B522D3DD2",
			"Assets": [
				"None"
			]
		},
		{
			"ShaderMapHash": "0D2A64F67E5B380FDD01170C20E25583A94A2A0E",
			"Assets": [
				"None"
			]
		},
		{
			"ShaderMapHash": "F283F2A738DC5927D084EC802DF5DA08E2710EE2",
			"Assets": [
				"None"
			]
		},
		{
			"ShaderMapHash": "D201A34F52E8D9818886DC6CF63F902CEB09AF88",
			"Assets": [
				"None"
			]
		},
		{
			"ShaderMapHash": "A6ACE28AE5D7EC0975FF97A777B8A057AB3B70AF",
			"Assets": [
				"None"
			]
		},
		{
			"ShaderMapHash": "0FF75E714C77D153DC2C9431AB8700215BD34AB0",
			"Assets": [
				"None"
			]
		},
		{
			"ShaderMapHash": "EC95A68896BF5F0AA4103A1A3EA02620F2D870A0",
			"Assets": [
				"None"
			]
		},
		{
			"ShaderMapHash": "09AD70071A5CECD562B6D95644E80E6FFE29E3F8",
			"Assets": [
				"None"
			]
		},
		{
			"ShaderMapHash": "0395B447025BBE9C9770113070A8938884DBDA71",
			"Assets": [
				"None"
			]
		},
		{
			"ShaderMapHash": "95E29014FF9DEDFAE9FD31498B1A4AAE6514EEF5",
			"Assets": [
				"None"
			]
		},
		{
			"ShaderMapHash": "86608B3B760F7406F6658A3831B667CC4604499F",
			"Assets": [
				"None"
			]
		},
		{
			"ShaderMapHash": "B43DD6EEBBCBB6508FC5A251DE19520419B0D449",
			"Assets": [
				"None"
			]
		},
		{
			"ShaderMapHash": "258A4516923EC488E50E04E3C5E90A5FFE4E4F6F",
			"Assets": [
				"None"
			]
		},
		{
			"ShaderMapHash": "956B1EE023477FC8CEC533585061934D410240B7",
			"Assets": [
				"None"
			]
		},
		{
			"ShaderMapHash": "43E4466E19DEAB52907B06A5FF10DB85E7D438E1",
			"Assets": [
				"None"
			]
		},
		{
			"ShaderMapHash": "39E4A10CB2447F258D8A0E8E396F673686CDC74E",
			"Assets": [
				"None"
			]
		},
		{
			"ShaderMapHash": "03CF2B065AB6F233358040960776B7D52A48E624",
			"Assets": [
				"None"
			]
		},
		{
			"ShaderMapHash": "44E819364088D6B443CAC80A1B2C2719AA29F4EA",
			"Assets": [
				"None"
			]
		},
		{
			"ShaderMapHash": "4F51880C4D7F672F68DEDBAC45FC1A6ABCA0C921",
			"Assets": [
				"None"
			]
		},
		{
			"ShaderMapHash": "A3BE29E19A0D29EF3621CAA47C2A4D1781E9AAD5",
			"Assets": [
				"None"
			]
		},
		{
			"ShaderMapHash": "F05CFEC92A3A94090215C49F43D4BAAADC64F697",
			"Assets": [
				"None"
			]
		},
		{
			"ShaderMapHash": "0EE68720DABD141F44D03CDC46FFF3D0EB9DBAC2",
			"Assets": [
				"None"
			]
		},
		{
			"ShaderMapHash": "E7FF9D50BBFE6EA10DE232E7CC6BCE26A6CDDF4E",
			"Assets": [
				"None"
			]
		},
		{
			"ShaderMapHash": "715C70AE585CEB78524A343F620CBAAC4E75FDDA",
			"Assets": [
				"None"
			]
		},
		{
			"ShaderMapHash": "6B594EB56F9541806F4FE2CA9E5067D2097FE7CC",
			"Assets": [
				"None"
			]
		},
		{
			"ShaderMapHash": "E60428691D480A84C0EF1AD186AA156B41912EA6",
			"Assets": [
				"None"
			]
		},
		{
			"ShaderMapHash": "5B1BA608FC90856BC0B91B92EE204ED28AC9C8EB",
			"Assets": [
				"None"
			]
		},
		{
			"ShaderMapHash": "C652E48B31FE61B716846E819721883C5B210014",
			"Assets": [
				"None"
			]
		},
		{
			"ShaderMapHash": "623C6ADA96BB37FB1E5279A28170AE2B6CA7C2D3",
			"Assets": [
				"None"
			]
		},
		{
			"ShaderMapHash": "B51B8C2D72194253508FB9DEB3D9DA6ED4383A6C",
			"Assets": [
				"None"
			]
		},
		{
			"ShaderMapHash": "681D7842DDE75AAED2A2160FE35FF5D34FC2C4E7",
			"Assets": [
				"None"
			]
		},
		{
			"ShaderMapHash": "65B6E3741C1D969E905FE5C8136678040ED34201",
			"Assets": [
				"None"
			]
		},
		{
			"ShaderMapHash": "30D8DD3B37E1C4D42AC3B4A420CF0BF1308A7C43",
			"Assets": [
				"None"
			]
		},
		{
			"ShaderMapHash": "755EFDFE6C8819FA92EE7827B4881A2B5F1D8791",
			"Assets": [
				"None"
			]
		},
		{
			"ShaderMapHash": "CB9704348685B6EBC0BE5A75838B79267D30264B",
			"Assets": [
				"None"
			]
		},
		{
			"ShaderMapHash": "4EA72C6F0A7BCFF7001FFB2D0BF6DFED0602AB33",
			"Assets": [
				"None"
			]
		},
		{
			"ShaderMapHash": "BBF4427FF49AF0135283636BFB93787142C097D0",
			"Assets": [
				"None"
			]
		},
		{
			"ShaderMapHash": "46FE002316A6706F01A37833DC00EE7D3FA7157D",
			"Assets": [
				"None"
			]
		},
		{
			"ShaderMapHash": "857086412AA8133035153A29775381DC27C13AB1",
			"Assets": [
				"None"
			]
		},
		{
			"ShaderMapHash": "A15C817C860DF3A33C6E3AA15FC905A9C6F80F00",
			"Assets": [
				"None"
			]
		},
		{
			"ShaderMapHash": "FB36C7704046B1A1A45790F9D9B04D85D0D9A855",
			"Assets": [
				"None"
			]
		},
		{
			"ShaderMapHash": "D91EC2790DF8B9FE5D78C897BD980A5547D84B64",
			"Assets": [
				"None"
			]
		},
		{
			"ShaderMapHash": "07F9A9F91B7A18F8F4214A281FA675C3D4B5665A",
			"Assets": [
				"None"
			]
		},
		{
			"ShaderMapHash": "8DAE7C1B86F6DAC7FB1BE420F14A2E4379190DA6",
			"Assets": [
				"None"
			]
		},
		{
			"ShaderMapHash": "989B1EFDCBE88057840292EC762FFB7A22658372",
			"Assets": [
				"None"
			]
		},
		{
			"ShaderMapHash": "CACF364E52CC7FDC49992A3066ACD8A239A470F1",
			"Assets": [
				"None"
			]
		},
		{
			"ShaderMapHash": "C44AB819D767B0E875FD9D8AD5F3204C40526169",
			"Assets": [
				"None"
			]
		},
		{
			"ShaderMapHash": "C8D7349A58F0A79BD218656F39EF6D9FAB72A54B",
			"Assets": [
				"None"
			]
		},
		{
			"ShaderMapHash": "7114E4DB3135C488DD2AEF0F363672770DEF07D9",
			"Assets": [
				"None"
			]
		},
		{
			"ShaderMapHash": "4AB1BBAF5A5D7F798C11A84F84508D3F12E910BA",
			"Assets": [
				"None"
			]
		},
		{
			"ShaderMapHash": "2D3A791CC9F339B81C49A0CD45A2C9FF147D8708",
			"Assets": [
				"None"
			]
		},
		{
			"ShaderMapHash": "796FA5B5749AE3CC04A91E5B0D7C9A7E03517C29",
			"Assets": [
				"None"
			]
		},
		{
			"ShaderMapHash": "3207CC43536E61664EA121A364AA316FE3155A5A",
			"Assets": [
				"None"
			]
		},
		{
			"ShaderMapHash": "B91497443F8D3D64A552C2A21839BA4A6CADC7BB",
			"Assets": [
				"None"
			]
		},
		{
			"ShaderMapHash": "F5220E3B4540DAF85CCE38C3F7055F55307E09DE",
			"Assets": [
				"None"
			]
		},
		{
			"ShaderMapHash": "C4A89456DB012815032C22BA1942298156340B17",
			"Assets": [
				"None"
			]
		},
		{
			"ShaderMapHash": "E072EED27765C2940DFC1AB86E97751515D9C934",
			"Assets": [
				"None"
			]
		},
		{
			"ShaderMapHash": "C0D3659B6FEA4CEDDE35DB4A55317C34B6B2A156",
			"Assets": [
				"None"
			]
		},
		{
			"ShaderMapHash": "D47C96A51401D887FD1BA5D4875E68A89156E8C3",
			"Assets": [
				"None"
			]
		},
		{
			"ShaderMapHash": "45E0A9C05A2339D9223C62F4691966FED8C63973",
			"Assets": [
				"None"
			]
		},
		{
			"ShaderMapHash": "499A9B8BD596DB6EC5FFAED6967D7AFE7044C1FC",
			"Assets": [
				"None"
			]
		},
		{
			"ShaderMapHash": "A8C1E779BFD5BBD1318F4926E9D3C7A54905D9AE",
			"Assets": [
				"None"
			]
		},
		{
			"ShaderMapHash": "698006837009668DF2E9A7E0EA9469F5C178C4D8",
			"Assets": [
				"None"
			]
		},
		{
			"ShaderMapHash": "A3BE20D8F1846C92DD03EAB9363C96DAAB454941",
			"Assets": [
				"None"
			]
		},
		{
			"ShaderMapHash": "5544C4E96D6E799B9EAA45794887BD6739427882",
			"Assets": [
				"None"
			]
		},
		{
			"ShaderMapHash": "6C0F86F05A12234F090614C5039316F71A8A1E75",
			"Assets": [
				"None"
			]
		},
		{
			"ShaderMapHash": "2EC0D394E65266B7B9970DD625B8AAA593EEB58B",
			"Assets": [
				"None"
			]
		},
		{
			"ShaderMapHash": "25198DF382827602D8CE779D59B6D762C03B2F90",
			"Assets": [
				"None"
			]
		},
		{
			"ShaderMapHash": "8728FDD847AD8AAAC216CD547F25B7AAFB35BD2A",
			"Assets": [
				"None"
			]
		},
		{
			"ShaderMapHash": "F1D9B492944D74D2526D1706FCE7DF4313D24406",
			"Assets": [
				"None"
			]
		},
		{
			"ShaderMapHash": "DED717C7D6FFC3041D6C8AAB5452D6B942A01E4E",
			"Assets": [
				"None"
			]
		},
		{
			"ShaderMapHash": "0D71166B91FF2535BBDB19E8B16DA9477F899BB2",
			"Assets": [
				"None"
			]
		},
		{
			"ShaderMapHash": "B16BB9EE8333650B34FB31EE61824A780A099D23",
			"Assets": [
				"None"
			]
		},
		{
			"ShaderMapHash": "C25DBB17BF7AD1BF0F88A1A574A9C1FBC19D91E7",
			"Assets": [
				"None"
			]
		},
		{
			"ShaderMapHash": "60FB88DC8A15C79B0F17A7404EDAA4003BF081F3",
			"Assets": [
				"None"
			]
		},
		{
			"ShaderMapHash": "04C7E2082FCC8393E60D434D8EAD88BB41848737",
			"Assets": [
				"None"
			]
		},
		{
			"ShaderMapHash": "42E5EFBEC3955008D6832505C23A6E7367FCA549",
			"Assets": [
				"None"
			]
		},
		{
			"ShaderMapHash": "6ABC0EB5ABF3974FE76B121CC9E4B3D213ED2107",
			"Assets": [
				"None"
			]
		},
		{
			"ShaderMapHash": "254FF3644FDEDF3B832F7C593A901BC0C4671B1E",
			"Assets": [
				"None"
			]
		},
		{
			"ShaderMapHash": "B894CB7AE45BDA87956D512B12F71468165A57CC",
			"Assets": [
				"None"
			]
		},
		{
			"ShaderMapHash": "898DBA327DB50F5AE3F154755970B24C02E9A1C3",
			"Assets": [
				"None"
			]
		},
		{
			"ShaderMapHash": "68D79C75DD731D4B34D153418CE21C14B155BB77",
			"Assets": [
				"None"
			]
		},
		{
			"ShaderMapHash": "C666FE6E0FE849E9C271BA97FA3FB1A2301CE9E2",
			"Assets": [
				"None"
			]
		},
		{
			"ShaderMapHash": "E6A8B6FBFBB1C7EC5393A0926BDD9E2ACC433249",
			"Assets": [
				"None"
			]
		},
		{
			"ShaderMapHash": "012DD61F0CBD7E86778C8FCB4208723D5B45A281",
			"Assets": [
				"None"
			]
		},
		{
			"ShaderMapHash": "86FCC9CBE84C898C5742308FD607A3AF83C8B8C2",
			"Assets": [
				"None"
			]
		},
		{
			"ShaderMapHash": "473ADD4E7D54E444D3B358A7BD6D727F161F594B",
			"Assets": [
				"None"
			]
		},
		{
			"ShaderMapHash": "7D696C30F8E80D3DBFE7D05EE25471B30FDB496B",
			"Assets": [
				"None"
			]
		},
		{
			"ShaderMapHash": "5887696500BCAC051AA16D1C867173608BC7F030",
			"Assets": [
				"None"
			]
		},
		{
			"ShaderMapHash": "4FB821A7F70686FADBD4887FF66AF3F9EFDA6DFD",
			"Assets": [
				"None"
			]
		},
		{
			"ShaderMapHash": "8278FEAC0413081292A589171D6D09737C011360",
			"Assets": [
				"None"
			]
		},
		{
			"ShaderMapHash": "9B3F34F33F96B42E1507F98C36844566E5D096C8",
			"Assets": [
				"None"
			]
		},
		{
			"ShaderMapHash": "3E28CCC7FE8CA53699495EE6A45831C822A46E4C",
			"Assets": [
				"None"
			]
		},
		{
			"ShaderMapHash": "8FD94730A4771EE998A169726A13ECEA0A5203FC",
			"Assets": [
				"None"
			]
		},
		{
			"ShaderMapHash": "966E4094E5912266C2880C29DF9506539439D1A8",
			"Assets": [
				"None"
			]
		},
		{
			"ShaderMapHash": "FD5F740801B9A1C01020E8C0CEE9C0332A56EDB7",
			"Assets": [
				"None"
			]
		},
		{
			"ShaderMapHash": "FE78F2CEB1D090B0A8F533667B15C12DCC44E079",
			"Assets": [
				"None"
			]
		},
		{
			"ShaderMapHash": "E77B7B90D1FD271E7A2AA633A5E85F0BF4E904C8",
			"Assets": [
				"None"
			]
		},
		{
			"ShaderMapHash": "1FD15B7265D376D83E90A3CDFA64647813EB8A66",
			"Assets": [
				"None"
			]
		},
		{
			"ShaderMapHash": "F422942E722FA0263AADC51ED4C926B73F5A091D",
			"Assets": [
				"None"
			]
		},
		{
			"ShaderMapHash": "56C1EE8591CA61F7B9F25F7C2B4083C4230B3E57",
			"Assets": [
				"None"
			]
		},
		{
			"ShaderMapHash": "59DFC999C48ABA200087B203F2933AD7A2123E73",
			"Assets": [
				"None"
			]
		},
		{
			"ShaderMapHash": "CA6FCC8EB28BAA060BF840A92385BCA0BA182A7B",
			"Assets": [
				"None"
			]
		},
		{
			"ShaderMapHash": "24C562930CA52D80A37DE315965BD46BF0A52585",
			"Assets": [
				"None"
			]
		},
		{
			"ShaderMapHash": "2B536B5180D0D13B8D27600F74548C83CD94D50A",
			"Assets": [
				"None"
			]
		},
		{
			"ShaderMapHash": "32FB084468FF85D1247F771539D4FB0538167D49",
			"Assets": [
				"None"
			]
		},
		{
			"ShaderMapHash": "FAFAB5F82249ABA67D17A908CA5B72027FB1B93D",
			"Assets": [
				"None"
			]
		},
		{
			"ShaderMapHash": "47E2BD6599841BB9638BF3817577DA475AC1F7A3",
			"Assets": [
				"None"
			]
		},
		{
			"ShaderMapHash": "7FBC617758C231D7ABB027402F407DCC992942F0",
			"Assets": [
				"None"
			]
		},
		{
			"ShaderMapHash": "F31C9A0D6431B2D7E730971E6C7A3B618B9F0834",
			"Assets": [
				"None"
			]
		},
		{
			"ShaderMapHash": "7D5438A00881081EAFCCADF922137208B7A24D36",
			"Assets": [
				"None"
			]
		},
		{
			"ShaderMapHash": "CD09D043BDB40573E7EF1B5AFDDC09E55AADAD56",
			"Assets": [
				"None"
			]
		},
		{
			"ShaderMapHash": "0A38591B57FE0426D49C08EE5C44C75BE416C428",
			"Assets": [
				"None"
			]
		},
		{
			"ShaderMapHash": "3EB73286CFC9AF465CCF1DCBBEB8E0A62FA47959",
			"Assets": [
				"None"
			]
		},
		{
			"ShaderMapHash": "33FDB50B72BCA08EA4F06E94B9BA063958D898B3",
			"Assets": [
				"None"
			]
		},
		{
			"ShaderMapHash": "3B4D2352C0F25032CB2BB5DDCE74432F353B21B7",
			"Assets": [
				"None"
			]
		},
		{
			"ShaderMapHash": "061CAE954926C2AE4928F98E31A7A014E771F4D0",
			"Assets": [
				"None"
			]
		},
		{
			"ShaderMapHash": "6ED7D2EF0F5A4F73E9552E34DF0ADFE448612CEE",
			"Assets": [
				"None"
			]
		},
		{
			"ShaderMapHash": "43381B474D0C8A3D5737D58A6928ADC9E11D4BC5",
			"Assets": [
				"None"
			]
		},
		{
			"ShaderMapHash": "EA834FD23459AFA3FC3059C3D2A0359ECA67FCD5",
			"Assets": [
				"None"
			]
		},
		{
			"ShaderMapHash": "F35675F828D066D8537433D430218C5C2619EFB2",
			"Assets": [
				"None"
			]
		},
		{
			"ShaderMapHash": "816CC4F362D975124724314EAE502D22B11348A8",
			"Assets": [
				"None"
			]
		},
		{
			"ShaderMapHash": "2B72699ED30C082C5A5C273070183CD427F77323",
			"Assets": [
				"None"
			]
		},
		{
			"ShaderMapHash": "F958B079F1303DFE2F5B1AEF31644673F231ED57",
			"Assets": [
				"None"
			]
		},
		{
			"ShaderMapHash": "191D94CB4233BDB0E31DCCDB19748565F7DE53C1",
			"Assets": [
				"None"
			]
		},
		{
			"ShaderMapHash": "968476BE0B9A3AC504F86D637E1C208ADA5BEA94",
			"Assets": [
				"None"
			]
		},
		{
			"ShaderMapHash": "FCA77BFD414669EA24AB7438E18C98A6B58F3D12",
			"Assets": [
				"None"
			]
		},
		{
			"ShaderMapHash": "F612DEEEC6697004485F3957E6E568FE8C4F5E31",
			"Assets": [
				"None"
			]
		},
		{
			"ShaderMapHash": "CAF4842CB1FF74693BD4319DE2CD256634D92910",
			"Assets": [
				"None"
			]
		},
		{
			"ShaderMapHash": "75932214A22036DE90F3577AE06F21C594771694",
			"Assets": [
				"None"
			]
		},
		{
			"ShaderMapHash": "A10FFDDBD0954D6450200AD10D0EC467ACBD908C",
			"Assets": [
				"None"
			]
		},
		{
			"ShaderMapHash": "8984B5B4D9216F3043363BD13AD39C8D71DDC6BD",
			"Assets": [
				"None"
			]
		},
		{
			"ShaderMapHash": "5B139D32597AE9B4E9C154AB8879277D87D54F6C",
			"Assets": [
				"None"
			]
		},
		{
			"ShaderMapHash": "27938A7D9A7A5CB1E8CD2FA1C86542B19A2E7E47",
			"Assets": [
				"None"
			]
		},
		{
			"ShaderMapHash": "72A75E7670D6DE9A6F39B80F0DA7A42EA94BDB6D",
			"Assets": [
				"None"
			]
		},
		{
			"ShaderMapHash": "EC37CD802B4B66100F9B40C744982B39C11FBF3D",
			"Assets": [
				"None"
			]
		},
		{
			"ShaderMapHash": "A676FE0709FDB4394B8710218043EC45CF09C435",
			"Assets": [
				"None"
			]
		},
		{
			"ShaderMapHash": "BC61B619CFC225185ABE3A7ADBA185BD2307DF2A",
			"Assets": [
				"None"
			]
		},
		{
			"ShaderMapHash": "81D802E7D6E81DAD7AA59CE513B474679000E204",
			"Assets": [
				"None"
			]
		},
		{
			"ShaderMapHash": "17A76AC902E0091FC9C7E03831DBA6EBE61C028A",
			"Assets": [
				"None"
			]
		},
		{
			"ShaderMapHash": "CF4D46C83974E15D7E043A8E88B1E106C46B9D4C",
			"Assets": [
				"None"
			]
		},
		{
			"ShaderMapHash": "E318CB8E53ACD31D21CA77E811C804F01DF752EE",
			"Assets": [
				"None"
			]
		},
		{
			"ShaderMapHash": "0B484EA6D8960227D8AB7D8AB8B9110AB2B94405",
			"Assets": [
				"None"
			]
		},
		{
			"ShaderMapHash": "2CAAD8475A76405C3454C199026CBB4C022EB520",
			"Assets": [
				"None"
			]
		},
		{
			"ShaderMapHash": "CCEE7E548696104F50879CF1A75E586537E24B6E",
			"Assets": [
				"None"
			]
		},
		{
			"ShaderMapHash": "8768140E7F30A733DE7E7DE58D8F4A3591BAA82B",
			"Assets": [
				"None"
			]
		},
		{
			"ShaderMapHash": "60C39AA076F9624219CC83640C4F1F7F0015018D",
			"Assets": [
				"None"
			]
		},
		{
			"ShaderMapHash": "99D50B9D5C1D874C45D76593388F06AA679BB699",
			"Assets": [
				"None"
			]
		},
		{
			"ShaderMapHash": "F95EE97F295813A6B8F057663BFB80A8E7D1ACF6",
			"Assets": [
				"None"
			]
		},
		{
			"ShaderMapHash": "3B4633F78B042CBC0A091530E673DC0AD259F149",
			"Assets": [
				"None"
			]
		},
		{
			"ShaderMapHash": "56F92C6CF8FF5E3A55887330E127B2DA63F0767E",
			"Assets": [
				"None"
			]
		},
		{
			"ShaderMapHash": "7638D32DD0A42624D25FECA416D4F1CCFE48ED9C",
			"Assets": [
				"None"
			]
		},
		{
			"ShaderMapHash": "990AF8D4BFAB6685B3714034980609925691B6B0",
			"Assets": [
				"None"
			]
		},
		{
			"ShaderMapHash": "3F71A63B277C32D9A8B6588A41D5F413939C8E29",
			"Assets": [
				"None"
			]
		},
		{
			"ShaderMapHash": "C00FEE77B2BAF52398FF2F2A805F11D40D992C0D",
			"Assets": [
				"None"
			]
		},
		{
			"ShaderMapHash": "9802AB6BBBAA9DB4A57E7AD7769CC3AA5BD0A59C",
			"Assets": [
				"None"
			]
		},
		{
			"ShaderMapHash": "56445AD727F88204DCAD30E6FA910F2C0AD09DBA",
			"Assets": [
				"None"
			]
		},
		{
			"ShaderMapHash": "BFB31601F72175364E17AD260FB59C63255A3AEE",
			"Assets": [
				"None"
			]
		},
		{
			"ShaderMapHash": "41725D8C2E58EAE46F4B23DB3BF511EBEDA9E9E3",
			"Assets": [
				"None"
			]
		},
		{
			"ShaderMapHash": "BCF9558A69830BE9890A294418B058FADA756D9E",
			"Assets": [
				"None"
			]
		},
		{
			"ShaderMapHash": "7D2730D8E9CC4CB31516BD1BF6D487968DB05AA0",
			"Assets": [
				"None"
			]
		},
		{
			"ShaderMapHash": "CCB0C930E614A3957139A2E22C5C864CA8190EBC",
			"Assets": [
				"None"
			]
		},
		{
			"ShaderMapHash": "22757B028D273511A2347E8B8B7330E200D2D394",
			"Assets": [
				"None"
			]
		},
		{
			"ShaderMapHash": "6D66D70674F922564E35D209E1214A8B6A5358F8",
			"Assets": [
				"None"
			]
		},
		{
			"ShaderMapHash": "3920BF81831D5F7B12324F88D8C2F1D718FC1AA4",
			"Assets": [
				"None"
			]
		},
		{
			"ShaderMapHash": "400CECF6F8B95CE3DFC157D203708086CF3BE279",
			"Assets": [
				"None"
			]
		},
		{
			"ShaderMapHash": "89ADACE1A5EA61968934221FB137D4C9419111EA",
			"Assets": [
				"None"
			]
		},
		{
			"ShaderMapHash": "77808BFA8211CC756E13394F91B76D7DF6D240D7",
			"Assets": [
				"None"
			]
		},
		{
			"ShaderMapHash": "B400045E61C788EE74E47401B2002B0766748149",
			"Assets": [
				"None"
			]
		},
		{
			"ShaderMapHash": "73E500D7AD7329F6E1C54EE03F970200C533350E",
			"Assets": [
				"None"
			]
		},
		{
			"ShaderMapHash": "0C51664BFF6F29A262F0A050EAD26EDAA7994611",
			"Assets": [
				"None"
			]
		},
		{
			"ShaderMapHash": "94E1DEC1E5AC2C01ECF4429604267B2A7F1D1E3F",
			"Assets": [
				"None"
			]
		},
		{
			"ShaderMapHash": "110F4EDC5A5671AEB7AE0CEB63BCF9A03377ED8A",
			"Assets": [
				"None"
			]
		},
		{
			"ShaderMapHash": "CAF88E96D3A9B33EEDE947AC81D681CE19FCBF42",
			"Assets": [
				"None"
			]
		},
		{
			"ShaderMapHash": "ACB3F357830AD761EA8EC02F04A18CDAD16DBF0D",
			"Assets": [
				"None"
			]
		},
		{
			"ShaderMapHash": "DA7A5A85826197FBD11DB141A24093B7D53622EB",
			"Assets": [
				"None"
			]
		},
		{
			"ShaderMapHash": "3442A3126D2B416752352404EA0A5A7430EB3428",
			"Assets": [
				"None"
			]
		},
		{
			"ShaderMapHash": "0590846A820E79B743ABA7C391DA1330E2ACC8F6",
			"Assets": [
				"None"
			]
		},
		{
			"ShaderMapHash": "0A784648CA1D5A5CDEE483019AE7EB724CA1FD2D",
			"Assets": [
				"None"
			]
		},
		{
			"ShaderMapHash": "23FC81ADBB276FE9068B70140BABAF227DD5543F",
			"Assets": [
				"None"
			]
		},
		{
			"ShaderMapHash": "C7719B4AD69C9D00FCDED37021E809F0D7566CEA",
			"Assets": [
				"None"
			]
		},
		{
			"ShaderMapHash": "9C01A50A476F2E3ECDDFE6C707BC6D8FD832C336",
			"Assets": [
				"None"
			]
		},
		{
			"ShaderMapHash": "257AD6DDB53FE910A54D4245C09B13E6CD2D684A",
			"Assets": [
				"None"
			]
		},
		{
			"ShaderMapHash": "9E56EE89C02CCC1CBFD381C0CDF8E3E08D3AE41E",
			"Assets": [
				"None"
			]
		},
		{
			"ShaderMapHash": "743EB7C1A518A680F0D5D0F628CBA21805029ADF",
			"Assets": [
				"None"
			]
		},
		{
			"ShaderMapHash": "BFBE6BDD66C384AF016E84A43C75A5A6F8CC5ECE",
			"Assets": [
				"None"
			]
		},
		{
			"ShaderMapHash": "84506548D647404E97591902DDA7EB07753A61A0",
			"Assets": [
				"None"
			]
		},
		{
			"ShaderMapHash": "C48297A5DB2438A4F7299373B052AAA50FA53AA4",
			"Assets": [
				"None"
			]
		},
		{
			"ShaderMapHash": "F2084BA86D782A9530B994808153CC43E36F9BF9",
			"Assets": [
				"None"
			]
		},
		{
			"ShaderMapHash": "3CD04EFA679F8FC6983CAAFB909515A5C8BA64C6",
			"Assets": [
				"None"
			]
		},
		{
			"ShaderMapHash": "BD8B87796354785CC8C33D0310D551FAFE1F5CCC",
			"Assets": [
				"None"
			]
		},
		{
			"ShaderMapHash": "F2A0ED69079120D9C9A61E035753BF31C20142F3",
			"Assets": [
				"None"
			]
		},
		{
			"ShaderMapHash": "CB8298F2E7CEEEFAE8A0E746B700CF2F2892C6DC",
			"Assets": [
				"None"
			]
		},
		{
			"ShaderMapHash": "3C2150329CB1C0404958AE172D90E923F834B1C8",
			"Assets": [
				"None"
			]
		},
		{
			"ShaderMapHash": "B26A70A84B9A6BF09E88484CC4E222CB25777C7A",
			"Assets": [
				"None"
			]
		},
		{
			"ShaderMapHash": "B6E1F5ADCB4910283AFA9AD2B22D5881D30B2BA8",
			"Assets": [
				"None"
			]
		}
	]
}